Data Manipulation – Analysing Quantitative Data with R
…
While we have discussed summary statistics that can be used to summarize data, it’s often very useful to compare their values across group, rather than only look at one number to describe an entire dataset. The tidyverse allows us to calculate summary statistics of variables through the summarise function. For example, to get the average GDP of countries in our data:

gdp_long %>% summarise(gdp_avg = mean(gdp_pc))

# A tibble: 1 × 1
  gdp_avg
    <dbl>
1  33486.

This is no different from using gdp_long$gdp_pc %>% mean(), other than it returns a tibble rather than a scalar value. However, the summarize function is most powerful in conjunction with the group_by function. As the name suggests, group_by function divides the data frame into groups using one of the variables. On the surface, it doesn’t appear to alter much:

gdp_long_groupped <- gdp_long %>% group_by(country)
gdp_long_groupped

# A tibble: 140 × 5
# Groups:   country [7]
   country ccode X65   year  gdp_pc
   <chr>   <chr> <lgl> <chr>  <dbl>
 1 Germany DEU   NA    2000  27209.
 2 Germany DEU   NA    2001  28381.
 3 Germany DEU   NA    2002  29179.
 4 Germany DEU   NA    2003  29875.
 5 Germany DEU   NA    2004  31305.
 6 Germany DEU   NA    2005  31794.
 7 Germany DEU   NA    2006  34119.
 8 Germany DEU   NA    2007  36250.
 9 Germany DEU   NA    2008  37802.
10 Germany DEU   NA    2009  36851.
# ℹ 130 more rows
…
